			{
			title: 'Omar Cuesta',
			start: new Date(y, m, 1),
			className: 'label-important'
			
		  },
		  {
		  	title: 'Jesús Armando Guerra García',
		  	start: new Date(y, m, 1),
		  },
		  {
		  	title: 'Miguel Angel González Colin',
		  	start: new Date(y, m, 1),
		  }		  