<?xml version="1.0" encoding="utf-8"?>
<!-- Generator: Adobe Illustrator 16.0.0, SVG Export Plug-In . SVG Version: 6.00 Build 0)  -->
<!DOCTYPE svg PUBLIC "-//W3C//DTD SVG 1.1//EN" "http://www.w3.org/Graphics/SVG/1.1/DTD/svg11.dtd">
<svg version="1.1" id="Layer_1" xmlns="http://www.w3.org/2000/svg" xmlns:xlink="http://www.w3.org/1999/xlink" x="0px" y="0px"
	 width="158.992px" height="130.494px" viewBox="0 0 158.992 130.494" enable-background="new 0 0 158.992 130.494"
	 xml:space="preserve">
<g>
	<circle fill="#C9C9C9" cx="79.505" cy="25.067" r="14.496"/>
	<g>
		<path fill="#C9C9C9" d="M111.484,55.276c0.375,0.584,0.738,1.191,1.082,1.833c2.168,4.049,6.133,15.722,9.51,26.248h10.732V55.276
			H111.484z"/>
		<path fill="#C9C9C9" d="M56.834,64.993c-1.365,4.523-3.317,11.214-5.378,18.364h5.307l5.056-18.364H56.834z"/>
		<path fill="#C9C9C9" d="M47.332,55.276H27.939v28.081h10.193c3.246-10.913,6.805-22.66,7.804-25.23
			C46.304,57.183,46.777,56.227,47.332,55.276z"/>
		<path fill="#C9C9C9" d="M98.768,64.993l5.035,18.364h4.872c-2.3-7.326-4.548-14.149-6.156-18.364H98.768z"/>
	</g>
	<circle fill="#C9C9C9" cx="71.368" cy="69.571" r="7.629"/>
	<circle fill="#C9C9C9" cx="88.916" cy="69.571" r="7.629"/>
</g>
<g>
	<path fill="#C9C9C9" d="M38.133,83.357c-2.729,9.177-5.237,17.765-5.812,19.8c-0.974,3.447,1.032,7.03,4.479,8.003
		c0.589,0.168,1.183,0.246,1.765,0.246c2.83,0,5.432-1.866,6.238-4.725c1.909-6.763,4.35-15.331,6.653-23.324H38.133z"/>
	<path fill="#C9C9C9" d="M111.484,55.276c-6.522-10.165-17.381-11.771-21.044-11.771H66.027c-8.072,0-15.17,5.734-18.695,11.771
		H111.484z"/>
	<path fill="#C9C9C9" d="M122.076,83.357h-13.401c2.452,7.812,4.962,16.194,6.817,22.604c0.995,3.438,4.593,5.424,8.031,4.426
		c3.44-0.997,5.422-4.593,4.426-8.033C127.413,100.501,124.959,92.347,122.076,83.357z"/>
	<polygon fill="#C9C9C9" points="56.763,83.357 49.497,109.751 111.04,109.751 103.803,83.357 	"/>
</g>
</svg>
