<?xml version="1.0" encoding="utf-8"?>
<!-- Generator: Adobe Illustrator 16.0.0, SVG Export Plug-In . SVG Version: 6.00 Build 0)  -->
<!DOCTYPE svg PUBLIC "-//W3C//DTD SVG 1.1//EN" "http://www.w3.org/Graphics/SVG/1.1/DTD/svg11.dtd">
<svg version="1.1" id="Layer_1" xmlns="http://www.w3.org/2000/svg" xmlns:xlink="http://www.w3.org/1999/xlink" x="0px" y="0px"
	 width="158.992px" height="130.494px" viewBox="0 0 158.992 130.494" enable-background="new 0 0 158.992 130.494"
	 xml:space="preserve">
<path fill="#C9C9C9" d="M118.437,19.466c0,0-10.592,8.882-37.239,8.882c-26.648,0-37.58-9.225-37.58-9.225L17.311,97.018
	c0,0,21.386,19.814,63.918,19.814s65.222-19.814,65.222-19.814L118.437,19.466z M121.396,77.432
	c-4.782,3.301-11.274,4.326-14.235,3.073s-3.074,1.253-4.326,3.53c-1.253,2.277-8.2,12.187-22.549,13.097
	c-14.348,0.911-18.448-5.011-21.409-7.972s-4.669-8.883-5.238-11.274c-0.569-2.392-2.733-2.618-4.897-1.366
	c-2.163,1.252-6.491,3.758-9.224,1.025c-2.733-2.734-3.872-5.125-4.783-6.379c-0.911-1.252-1.139-2.732,0.456-3.871
	c1.594-1.139,3.302-1.025,6.377,2.961c2.847-2.164,5.809-4.099,8.313-5.58c2.505-1.48,8.085-1.708,11.274,0.684
	c3.188,2.391,4.783,6.49,8.313,7.515c3.53,1.025,6.149,1.253,7.06-0.227c0.911-1.482-0.569-2.278-1.594-4.784
	c-1.025-2.505-0.456-5.238,0-8.199c0.455-2.962,1.708-8.2,2.163-10.705c0.456-2.505,2.278-3.872,5.125-3.758s3.872,2.96,3.531,5.808
	c-0.342,2.847-2.506,13.779-2.506,13.779s3.417,4.783,4.442,6.833c1.366-0.457,3.074-1.367,3.074-1.367s-2.391-6.605-0.113-12.641
	s10.248-12.071,18.562-10.135c8.312,1.935,12.07,5.922,14.463,11.73C126.066,65.017,126.181,74.128,121.396,77.432z"/>
</svg>
